{
  "data": [
    {"value": 11},
    {"value": 12},
    {"value": 13},
    {"value": 14},
    {"value": 15},
    {"value": 16},
    {"value": 17},
    {"value": 18},
    {"value": 19},
    {"value": 20}
  ],
  "pagination": {
    "total": 20,
    "page": 2,
    "per_page": 10,
    "total_pages": 2
  }
}