{
  "data": [
    {"value": 1},
    {"value": 2},
    {"value": 3},
    {"value": 4},
    {"value": 5},
    {"value": 6},
    {"value": 7},
    {"value": 8},
    {"value": 9},
    {"value": 10}
  ],
  "pagination": {
    "total": 20,
    "page": 1,
    "per_page": 10,
    "total_pages": 2
  }
}