{
	"data": [
		{
			"timestamp": "2023-06-22T14:17:12",
			"ip_address": "54.66.235.141",
			"location": "AU",
			"type": "headerrate",
			"mode": "report",
			"rule_id": "10010",
			"domain": "api.quantcdn.io",
			"url": "\/v1\/global-meta?page_size=200",
			"method": "POST",
			"user_agent": "PyQuantCrawl"
		},
		{
			"timestamp": "2023-06-22T14:16:42",
			"ip_address": "185.100.85.23",
			"location": "RO",
			"type": "dnsbl",
			"mode": "report",
			"rule_id": "10167",
			"domain": "api.quantcdn.io",
			"url": "\/",
			"method": "GET",
			"user_agent": "Mozilla\/5.0 (compatible; MSIE 10.0; Windows NT 6.1; Trident\/6.0)"
		},
		{
			"timestamp": "2023-06-22T14:12:55",
			"ip_address": "54.66.235.141",
			"location": "AU",
			"type": "headerrate",
			"mode": "report",
			"rule_id": "10010",
			"domain": "api.quantcdn.io",
			"url": "\/v1\/",
			"method": "POST",
			"user_agent": "PyQuantCrawl"
		},
		{
			"timestamp": "2023-06-22T14:11:24",
			"ip_address": "13.210.177.116",
			"location": "AU",
			"type": "headerrate",
			"mode": "report",
			"rule_id": "10010",
			"domain": "api.quantcdn.io",
			"url": "\/v1\/",
			"method": "POST",
			"user_agent": "PyQuantCrawl"
		},
		{
			"timestamp": "2023-06-22T14:11:02",
			"ip_address": "13.211.11.65",
			"location": "AU",
			"type": "headerrate",
			"mode": "report",
			"rule_id": "10010",
			"domain": "api.quantcdn.io",
			"url": "\/v1\/",
			"method": "POST",
			"user_agent": "PyQuantCrawl"
		},
		{
			"timestamp": "2023-06-22T14:09:50",
			"ip_address": "13.210.177.116",
			"location": "AU",
			"type": "headerrate",
			"mode": "report",
			"rule_id": "10010",
			"domain": "api.quantcdn.io",
			"url": "\/v1\/global-meta?page_size=200",
			"method": "POST",
			"user_agent": "PyQuantCrawl"
		},
		{
			"timestamp": "2023-06-22T14:09:10",
			"ip_address": "54.66.235.141",
			"location": "AU",
			"type": "headerrate",
			"mode": "report",
			"rule_id": "10010",
			"domain": "api.quantcdn.io",
			"url": "\/v1\/global-meta?page_size=200",
			"method": "POST",
			"user_agent": "PyQuantCrawl"
		},
		{
			"timestamp": "2023-06-22T14:09:07",
			"ip_address": "54.206.246.88",
			"location": "AU",
			"type": "headerrate",
			"mode": "report",
			"rule_id": "10010",
			"domain": "api.quantcdn.io",
			"url": "\/v1\/unpublish",
			"method": "PATCH",
			"user_agent": "Quant (+http:\/\/quant.io)"
		},
		{
			"timestamp": "2023-06-22T14:08:53",
			"ip_address": "13.211.2.173",
			"location": "AU",
			"type": "headerrate",
			"mode": "report",
			"rule_id": "10010",
			"domain": "api.quantcdn.io",
			"url": "\/v1\/",
			"method": "POST",
			"user_agent": "PyQuantCrawl"
		},
		{
			"timestamp": "2023-06-22T14:08:19",
			"ip_address": "13.211.2.173",
			"location": "AU",
			"type": "headerrate",
			"mode": "report",
			"rule_id": "10010",
			"domain": "api.quantcdn.io",
			"url": "\/v1\/global-meta?page_size=200",
			"method": "POST",
			"user_agent": "PyQuantCrawl"
		}
	],
	"total_records": 16456,
	"next": "https:\/\/api.quantcdn.io\/api\/v1\/waf\/log?page=2&per_page=10"
}